…
$Table_Landing_LFD_GEAR
# A tibble: 29 x 4
# Groups:   year, gear [15]
    year gear  fishery total_number
   <int> <chr> <chr>          <dbl>
 1  2017 OTB   DEMSP         84250.
 2  2017 OTB   MDDWSP         9442.
 3  2016 OTB   DEMSP         81778.
 4  2016 OTB   DWSP            791.
 5  2016 OTB   MDDWSP        13962.
 6  2015 OTB   DEMSP         79993.
 7  2015 OTB   DWSP            642.
 8  2015 OTB   MDDWSP         8150.
 9  2014 OTB   DEMSP         44674.
10  2014 OTB   MDDWSP         6508.
# i 19 more rows
…
$Table_Catches_LFD_GEAR
# A tibble: 4,545 x 3
# Groups:   year, gear [24]
    year gear  tot_val
   <int> <chr>   <dbl>
 1  2017 OTB      0   
 2  2017 OTB      0   
 3  2017 OTB      0   
 4  2017 OTB      0   
 5  2017 OTB      0   
 6  2017 OTB      0   
 7  2017 OTB      9.07
 8  2017 OTB     12.8 
 9  2017 OTB    157.  
10  2017 OTB    365.  
# i 4,535 more rows

$Table_Catches_LFD_YEAR
# A tibble: 1,515 x 3
# Groups:   year [15]
    year length tot_val
   <int>  <dbl>   <dbl>
 1  2017    100       0
 2  2017     99       0
 3  2017     98       0
 4  2017     97       0
 5  2017     96       0
 6  2017     95       0
 7  2017     94       0
 8  2017     93       0
 9  2017     92       0
10  2017     91       0
# i 1,505 more rows
…
