…
``` r
summarize_ind_meas(data_ex)
#> [[1]]
#> # A tibble: 139 x 5
#> # Groups:   Year, Area, Species [4]
#>     Year Area  Species         Trip_code  length_measurements
#>    <int> <chr> <chr>           <chr>                    <int>
#>  1  2014 GSA99 Mullus barbatus 12_18_2014                 120
#>  2  2014 GSA99 Mullus barbatus 14_18_2014                 163
#>  3  2014 GSA99 Mullus barbatus 15_18_2014                 252
#>  4  2014 GSA99 Mullus barbatus 17_18_2014                 239
#>  5  2014 GSA99 Mullus barbatus 19_18_2014                1657
#>  6  2014 GSA99 Mullus barbatus 20_18_2014                 752
#>  7  2014 GSA99 Mullus barbatus 22_18_2014                  62
#>  8  2014 GSA99 Mullus barbatus 27_18_2014                2217
#>  9  2014 GSA99 Mullus barbatus 4_18_2014                  122
#> 10  2014 GSA99 Mullus barbatus 41_18_2014                 396
#> # ... with 129 more rows
#> 
#> [[2]]
#> # A tibble: 139 x 5
#> # Groups:   Year, Area, Species [4]
#>     Year Area  Species         Trip_code  maturity_data
#>    <int> <chr> <chr>           <chr>              <int>
#>  1  2014 GSA99 Mullus barbatus 12_18_2014           120
#>  2  2014 GSA99 Mullus barbatus 14_18_2014           163
#>  3  2014 GSA99 Mullus barbatus 15_18_2014           252
#>  4  2014 GSA99 Mullus barbatus 17_18_2014           239
#>  5  2014 GSA99 Mullus barbatus 19_18_2014          1657
#>  6  2014 GSA99 Mullus barbatus 20_18_2014           752
#>  7  2014 GSA99 Mullus barbatus 22_18_2014            62
#>  8  2014 GSA99 Mullus barbatus 27_18_2014          2217
#>  9  2014 GSA99 Mullus barbatus 4_18_2014            122
#> 10  2014 GSA99 Mullus barbatus 41_18_2014           396
#> # ... with 129 more rows
#> 
#> [[3]]
#> # A tibble: 139 x 5
#> # Groups:   Year, Area, Species [4]
#>     Year Area  Species         Trip_code  sex_data
#>    <int> <chr> <chr>           <chr>         <int>
#>  1  2014 GSA99 Mullus barbatus 12_18_2014      120
#>  2  2014 GSA99 Mullus barbatus 14_18_2014      163
#>  3  2014 GSA99 Mullus barbatus 15_18_2014      252
#>  4  2014 GSA99 Mullus barbatus 17_18_2014      239
#>  5  2014 GSA99 Mullus barbatus 19_18_2014     1657
#>  6  2014 GSA99 Mullus barbatus 20_18_2014      752
#>  7  2014 GSA99 Mullus barbatus 22_18_2014       62
#>  8  2014 GSA99 Mullus barbatus 27_18_2014     2217
#>  9  2014 GSA99 Mullus barbatus 4_18_2014       122
#> 10  2014 GSA99 Mullus barbatus 41_18_2014      396
#> # ... with 129 more rows
#> 
#> [[4]]
#> # A tibble: 107 x 5
#> # Groups:   Year, Area, Species [4]
#>     Year Area  Species         Trip_code  age_data
#>    <int> <chr> <chr>           <chr>         <int>
#>  1  2014 GSA99 Mullus barbatus 12_18_2014       54
#>  2  2014 GSA99 Mullus barbatus 14_18_2014       52
#>  3  2014 GSA99 Mullus barbatus 15_18_2014       68
#>  4  2014 GSA99 Mullus barbatus 17_18_2014       27
#>  5  2014 GSA99 Mullus barbatus 19_18_2014       84
#>  6  2014 GSA99 Mullus barbatus 20_18_2014       32
#>  7  2014 GSA99 Mullus barbatus 22_18_2014       12
#>  8  2014 GSA99 Mullus barbatus 27_18_2014        1
#>  9  2014 GSA99 Mullus barbatus 4_18_2014        26
#> 10  2014 GSA99 Mullus barbatus 41_18_2014        8
#> # ... with 97 more rows
#> 
#> [[5]]
#> # A tibble: 139 x 5
#> # Groups:   Year, Area, Species [4]
#>     Year Area  Species         Trip_code  weight_data
#>    <int> <chr> <chr>           <chr>            <int>
#>  1  2014 GSA99 Mullus barbatus 12_18_2014         120
#>  2  2014 GSA99 Mullus barbatus 14_18_2014         163
#>  3  2014 GSA99 Mullus barbatus 15_18_2014         252
#>  4  2014 GSA99 Mullus barbatus 17_18_2014         239
#>  5  2014 GSA99 Mullus barbatus 19_18_2014        1657
#>  6  2014 GSA99 Mullus barbatus 20_18_2014         752
#>  7  2014 GSA99 Mullus barbatus 22_18_2014          62
#>  8  2014 GSA99 Mullus barbatus 27_18_2014        2217
#>  9  2014 GSA99 Mullus barbatus 4_18_2014          122
#> 10  2014 GSA99 Mullus barbatus 41_18_2014         396
#> # ... with 129 more rows
```

## Summarize trips

This function reports for each year, area, harbour, metier and sampling
method the number of trips in the dataset.

``` r
summarize_trips(data_ex)
#> # A tibble: 32 x 6
#> # Groups:   Year, Area, Harbour, Fishing_activity_category_European_lvl_6 [20]
#>     Year Area  Harbour Fishing_activity_category_Europ~ Sampling.method Nb_trips
#>    <int> <chr> <chr>   <chr>                            <chr>              <int>
#>  1  2014 GSA99 ITBCE   OTB_DEF_>=40_0_0                 Observer               2
#>  2  2014 GSA99 ITBDS   OTB_DEF_>=40_0_0                 Observer               2
#>  3  2014 GSA99 ITBDS   OTB_DEF_>=40_0_0                 SelfSampling           2
#>  4  2014 GSA99 ITMFR   OTB_DEF_>=40_0_0                 Observer               1
#>  5  2014 GSA99 ITMFR   OTB_DEF_>=40_0_0                 SelfSampling           7
#>  6  2014 GSA99 ITMNP   OTB_DEF_>=40_0_0                 Observer               2
#>  7  2014 GSA99 ITMOL   OTB_DEF_>=40_0_0                 Observer               6
#>  8  2014 GSA99 ITMOL   OTB_DEF_>=40_0_0                 SelfSampling           3
#>  9  2015 GSA99 ITBCE   OTB_DEF_>=40_0_0                 Observer               1
#> 10  2015 GSA99 ITBCE   OTB_DEF_>=40_0_0                 SelfSampling           1
#> # ... with 22 more rows
```
…
